{
    "data": {
        "name": "LHC17pq",
        "file": "root://eos-hlit.jinr.ru//eos/hybrilit.jinr.ru/projects/cern/alice/rsn/alice/cern.ch/user/a/alitrain/PWGLF/LF_pp/1804_1/k_leading_3s_INT7/AnalysisResults.root",
        "sigbg": "UnlikeAll",
        "bg": "LikeAll"
    },
    "mc": {
        "name": "LHC16k5ab",
        "file": "root://eos-hlit.jinr.ru//eos/hybrilit.jinr.ru/projects/cern/alice/rsn/alice/cern.ch/user/a/alitrain/PWGLF/LF_pp_MC/1380_20191004-1015_child_2/k_leading_3s_INT7/AnalysisResults.root",
        "sigbg": "UnlikeAll",
        "bg": "LikeAll",
        "rec": "True",
        "gen": "Mother",
        "effonly": false
    },
    "bin": [
        {
            "active": true,
            "id": 1,
            "name": "pt",
            "cutRange": "5,41",
            "varbins": "1,41"
        },
        {
            "active": true,
            "id": 3,
            "name": "dphi",
            "varbins": "1,3,5,7,9,11,13,15,17,19,21,23,25,27,29,31,33,35,37" //18 parts - 20 degrees
        },
        {
            "active": true,
            "id": 4,
            "name": "ptl",
            "cutRange": "5,41",
            "varbins": "5,41"
        }
    ],
    "norm": [
        {
            "id": 0,
            "min": 0.97,
            "max": 1.0
        },
        {
            "id": 1,
            "min": 0.8,
            "max": 0.85
        }
    ],
    "fit": [
        {
            "id": 3,
            "min": 0.8,
            "max": 1.0
        },
        {
            "id": 4,
            "min": 0.8,
            "max": 1.0
        },
        {
            "id": 5,
            "min": 0.8,
            "max": 1.0
        }
    ],
    "fitParameters": {
        "mass": 0.89555,
        "width": 0.0473,
        "sigma": 0.001
    }
}