%!PS-Adobe-2.0 EPSF-2.0
%%BoundingBox:  0 0 567 316
%%Title: /home/zrescako/git/cern/alike/hrc/macros/analysis/phi/5TeV/hmass.eps: Canvas_1
%%Creator: ROOT Version 6.18/04
%%CreationDate: Wed Oct  7 12:26:14 2020
%%DocumentNeededResources: ProcSet (FontSetInit)
%%EndComments
%%BeginProlog
80 dict begin
/s {stroke} def /l {lineto} def /m {moveto} def /t {translate} def
/r {rotate} def /rl {roll}  def /R {repeat} def
/d {rlineto} def /rm {rmoveto} def /gr {grestore} def /f {eofill} def
/c {setrgbcolor} def /black {0 setgray} def /sd {setdash} def
/cl {closepath} def /sf {scalefont setfont} def /lw {setlinewidth} def
/box {m dup 0 exch d exch 0 d 0 exch neg d cl} def
/NC{systemdict begin initclip end}def/C{NC box clip newpath}def
/bl {box s} def /bf {gsave box gsave f grestore 1 lw [] 0 sd s grestore} def /Y { 0 exch d} def /X { 0 d} def 
/K {{pop pop 0 moveto} exch kshow} bind def
/ita {/ang 15 def gsave [1 0 ang dup sin exch cos div 1 0 0] concat} def 
/mp {newpath /y exch def /x exch def} def
/side {[w .77 mul w .23 mul] .385 w mul sd w 0 l currentpoint t -144 r} def
/mr {mp x y w2 0 360 arc} def /m24 {mr s} def /m20 {mr f} def
/mb {mp x y w2 add m w2 neg 0 d 0 w neg d w 0 d 0 w d cl} def
/mt {mp x y w2 add m w2 neg w neg d w 0 d cl} def
/w4 {w 4 div} def
/w6 {w 6 div} def
/w8 {w 8 div} def
/m21 {mb f} def /m25 {mb s} def /m22 {mt f} def /m26{mt s} def
/m23 {mp x y w2 sub m w2 w d w neg 0 d cl f} def
/m27 {mp x y w2 add m w3 neg w2 neg d w3 w2 neg d w3 w2 d cl s} def
/m28 {mp x w2 sub y w2 sub w3 add m w3 0 d  0 w3 neg d w3 0 d 0 w3 d w3 0 d  0 w3 d w3 neg 0 d 0 w3 d w3 neg 0 d 0 w3 neg d w3 neg 0 d cl s } def
/m29 {mp gsave x w2 sub y w2 add w3 sub m currentpoint t 4 {side} repeat cl fill gr} def
/m30 {mp gsave x w2 sub y w2 add w3 sub m currentpoint t 4 {side} repeat cl s gr} def
/m31 {mp x y w2 sub m 0 w d x w2 sub y m w 0 d x w2 sub y w2 add m w w neg d x w2 sub y w2 sub m w w d s} def
/m32 {mp x y w2 sub m w2 w d w neg 0 d cl s} def
/m33 {mp x y w2 add m w3 neg w2 neg d w3 w2 neg d w3 w2 d cl f} def
/m34 {mp x w2 sub y w2 sub w3 add m w3 0 d  0 w3 neg d w3 0 d 0 w3 d w3 0 d  0 w3 d w3 neg 0 d 0 w3 d w3 neg 0 d 0 w3 neg d w3 neg 0 d cl f } def
/m35 {mp x y w2 add m w2 neg w2 neg d w2 w2 neg d w2 w2 d w2 neg w2 d x y w2 sub m 0 w d x w2 sub y m w 0 d s} def
/m36 {mb x w2 sub y w2 add m w w neg d x w2 sub y w2 sub m w w d s} def
/m37 {mp x y m w4 neg w2 d w4 neg w2 neg d w2 0 d  w4 neg w2 neg d w2 0 d w4 neg w2 d w2 0 d w4 neg w2 d w4 neg w2 neg d cl s} def
/m38 {mp x w4 sub y w2 add m w4 neg w4 neg d 0 w2 neg d w4 w4 neg d w2 0 d w4 w4 d 0 w2 d w4 neg w4 d w2 neg 0 d x y w2 sub m 0 w d x w2 sub y m w 0 d cl s} def
/m39 {mp x y m w4 neg w2 d w4 neg w2 neg d w2 0 d  w4 neg w2 neg d w2 0 d w4 neg w2 d w2 0 d w4 neg w2 d w4 neg w2 neg d cl f} def
/m40 {mp x y m w4 w2 d w4 w4 neg d w2 neg w4 neg d w2 w4 neg d w4 neg w4 neg d w4 neg w2 d w4 neg w2 neg d w4 neg w4 d w2 w4 d w2 neg w4 d w4 w4 d w4 w2 neg d cl s} def
/m41 {mp x y m w4 w2 d w4 w4 neg d w2 neg w4 neg d w2 w4 neg d w4 neg w4 neg d w4 neg w2 d w4 neg w2 neg d w4 neg w4 d w2 w4 d w2 neg w4 d w4 w4 d w4 w2 neg d cl f} def
/m42 {mp x y w2 add m w8 neg w2 -3 4 div mul d w2 -3 4 div mul w8 neg d w2 3 4 div mul w8 neg d w8 w2 -3 4 div mul d w8 w2 3 4 div mul d w2 3 4 div mul w8 d w2 -3 4 div mul w8 d w8 neg w2 3 4 div mul d cl s} def
/m43 {mp x y w2 add m w8 neg w2 -3 4 div mul d w2 -3 4 div mul w8 neg d w2 3 4 div mul w8 neg d w8 w2 -3 4 div mul d w8 w2 3 4 div mul d w2 3 4 div mul w8 d w2 -3 4 div mul w8 d w8 neg w2 3 4 div mul d cl f} def
/m44 {mp x y m w6 neg w2 d w2 2 3 div mul 0 d w6 neg w2 neg d w2 w6 d 0 w2 -2 3 div mul d w2 neg w6 d w6 w2 neg d w2 -2 3 div mul 0 d w6 w2 d w2 neg w6 neg d 0 w2 2 3 div mul d w2 w6 neg d cl s} def
/m45 {mp x y m w6 neg w2 d w2 2 3 div mul 0 d w6 neg w2 neg d w2 w6 d 0 w2 -2 3 div mul d w2 neg w6 d w6 w2 neg d w2 -2 3 div mul 0 d w6 w2 d w2 neg w6 neg d 0 w2 2 3 div mul d w2 w6 neg d cl f} def
/m46 {mp x y w4 add m w4 neg w4 d w4 neg w4 neg d  w4 w4 neg d w4 neg w4 neg d w4 w4 neg d w4 w4 d w4 w4 neg d w4 w4 d w4 neg w4 d w4 w4 d w4 neg w4 d w4 neg w4 neg d cl s} def
/m47 {mp x y w4 add m w4 neg w4 d w4 neg w4 neg d w4 w4 neg d w4 neg w4 neg d  w4 w4 neg d w4 w4 d w4 w4 neg d w4 w4 d w4 neg w4 d w4 w4 d w4 neg w4 d w4 neg w4 neg d cl f} def
/m48 {mp x y w4 add m w4 neg w4 d w4 neg w4 neg d w4 w4 neg d  w4 neg w4 neg d w4 w4 neg d w4 w4 d w4 w4 neg d w4 w4 d w4 neg w4 d w4 w4 d w4 neg w4 d w4 neg w4 neg d  w4 w4 neg d w4 neg w4 neg d w4 neg w4 d w4 w4 d cl f} def
/m49 {mp x w2 sub w3 add y w2 sub w3 add m  0 w3 neg d w3 0 d 0 w3 d w3 0 d 0 w3 d w3 neg 0 d 0 w3 d w3 neg 0 d 0 w3 neg d w3 neg 0 d 0 w3 neg d w3 0 d 0 w3 d w3 0 d 0 w3 neg d w3 neg 0 d cl f } def
/m2 {mp x y w2 sub m 0 w d x w2 sub y m w 0 d s} def
/m5 {mp x w2 sub y w2 sub m w w d x w2 sub y w2 add m w w neg d s} def
%%IncludeResource: ProcSet (FontSetInit)
%%IncludeResource: font Times-Roman
%%IncludeResource: font Times-Italic
%%IncludeResource: font Times-Bold
%%IncludeResource: font Times-BoldItalic
%%IncludeResource: font Helvetica
%%IncludeResource: font Helvetica-Oblique
%%IncludeResource: font Helvetica-Bold
%%IncludeResource: font Helvetica-BoldOblique
%%IncludeResource: font Courier
%%IncludeResource: font Courier-Oblique
%%IncludeResource: font Courier-Bold
%%IncludeResource: font Courier-BoldOblique
%%IncludeResource: font Symbol
%%IncludeResource: font ZapfDingbats
/reEncode {exch findfont dup length dict begin {1 index /FID eq  {pop pop} {def} ifelse } forall /Encoding exch def currentdict end dup /FontName get exch definefont pop } def [/Times-Bold /Times-Italic /Times-BoldItalic /Helvetica /Helvetica-Oblique
 /Helvetica-Bold /Helvetica-BoldOblique /Courier /Courier-Oblique /Courier-Bold /Courier-BoldOblique /Times-Roman /AvantGarde-Book /AvantGarde-BookOblique /AvantGarde-Demi /AvantGarde-DemiOblique /Bookman-Demi /Bookman-DemiItalic /Bookman-Light
 /Bookman-LightItalic /Helvetica-Narrow /Helvetica-Narrow-Bold /Helvetica-Narrow-BoldOblique /Helvetica-Narrow-Oblique /NewCenturySchlbk-Roman /NewCenturySchlbk-Bold /NewCenturySchlbk-BoldItalic /NewCenturySchlbk-Italic /Palatino-Bold
 /Palatino-BoldItalic /Palatino-Italic /Palatino-Roman ] {ISOLatin1Encoding reEncode } forall
%%EndProlog
%%BeginSetup
%%EndSetup
newpath  gsave  .25 .25 scale  gsave  0 0 t black[  ] 0 sd 3 lw 1 1 1 c 2268 1265 0 0 bf black 1 1 1 c 1814 1012 227 126 bf black 1814 1012 227 126 bl 1 1 1 c 1814 1012 227 126 bf black 1814 1012 227 126 bl 1 1 1 c black 277 890 m 76 Y s 277 977 m 76
 Y s 227 971 m 44 X s 283 971 m 45 X s /w 12 def /w2 {w 2 div} def /w3 {w 3 div} def 277 971 m20 378 773 m 61 Y s 378 846 m 60 Y s 328 840 m 44 X s 384 840 m 44 X s 378 840 m20 479 725 m 64 Y s 479 801 m 64 Y s 428 795 m 45 X s 485 795 m 44 X s 479
 795 m20 580 755 m 54 Y s 580 821 m 53 Y s 529 815 m 45 X s 585 815 m 45 X s 580 815 m20 680 908 m 7 Y s 680 927 m 7 Y s 630 921 m 44 X s 686 921 m 45 X s 680 921 m20 781 975 m 57 Y s 781 1043 m 57 Y s 731 1037 m 44 X s 787 1037 m 44 X s 781 1037 m20
 882 671 m 56 Y s 882 738 m 56 Y s 831 733 m 45 X s 888 733 m 44 X s 882 733 m20 983 844 m 78 Y s 983 934 m 77 Y s 932 928 m 45 X s 989 928 m 44 X s 983 928 m20 1083 710 m 68 Y s 1083 789 m 68 Y s 1033 783 m 45 X s 1089 783 m 45 X s 1083 783 m20 1184
 761 m 61 Y s 1184 833 m 61 Y s 1134 828 m 44 X s 1190 828 m 45 X s 1184 828 m20 1285 787 m 72 Y s 1285 871 m 72 Y s 1235 865 m 44 X s 1291 865 m 44 X s 1285 865 m20 1386 773 m 62 Y s 1386 847 m 62 Y s 1335 841 m 45 X s 1392 841 m 44 X s 1386 841 m20
 1487 805 m 62 Y s 1487 878 m 62 Y s 1436 873 m 45 X s 1492 873 m 45 X s 1487 873 m20 1587 852 m 58 Y s 1587 922 m 58 Y s 1537 916 m 45 X s 1593 916 m 45 X s 1587 916 m20 1688 724 m 58 Y s 1688 794 m 59 Y s 1638 788 m 44 X s 1694 788 m 45 X s 1688
 788 m20 1789 892 m 60 Y s 1789 963 m 60 Y s 1739 958 m 44 X s 1795 958 m 44 X s 1789 958 m20 1890 968 m 73 Y s 1890 1052 m 73 Y s 1839 1046 m 45 X s 1896 1046 m 44 X s 1890 1046 m20 1991 777 m 56 Y s 1991 845 m 57 Y s 1940 839 m 45 X s 1996 839 m 45
 X s 1991 839 m20 227 126 m 1814 X s 392 157 m -31 Y s 449 142 m -16 Y s 507 142 m -16 Y s 565 142 m -16 Y s 623 142 m -16 Y s 680 157 m -31 Y s 738 142 m -16 Y s 796 142 m -16 Y s 854 142 m -16 Y s 911 142 m -16 Y s 969 157 m -31 Y s 1027 142 m -16
 Y s 1085 142 m -16 Y s 1142 142 m -16 Y s 1200 142 m -16 Y s 1258 157 m -31 Y s 1316 142 m -16 Y s 1373 142 m -16 Y s 1431 142 m -16 Y s 1489 142 m -16 Y s 1547 157 m -31 Y s 1604 142 m -16 Y s 1662 142 m -16 Y s 1720 142 m -16 Y s 1778 142 m -16 Y
 s 1835 157 m -31 Y s 392 157 m -31 Y s 334 142 m -16 Y s 276 142 m -16 Y s 1835 157 m -31 Y s 1893 142 m -16 Y s 1951 142 m -16 Y s 2008 142 m -16 Y s
 gsave  2268 1265 0 0 C 393.813 84.9113 t 0 r /Helvetica findfont 40.9916 sf 0 0 m (1) show NC gr 
 gsave  2268 1265 0 0 C 371.853 84.9113 t 0 r /Symbol findfont 40.9916 sf 0 0 m (-) show NC gr 
 gsave  2268 1265 0 0 C 667.578 84.9113 t 0 r /Helvetica findfont 40.9916 sf 0 0 m (0) show NC gr 
 gsave  2268 1265 0 0 C 960.376 84.9113 t 0 r /Helvetica findfont 40.9916 sf 0 0 m (1) show NC gr 
 gsave  2268 1265 0 0 C 1245.85 84.9113 t 0 r /Helvetica findfont 40.9916 sf 0 0 m (2) show NC gr 
 gsave  2268 1265 0 0 C 1534.26 84.9113 t 0 r /Helvetica findfont 40.9916 sf 0 0 m (3) show NC gr 
 gsave  2268 1265 0 0 C 1822.66 84.9113 t 0 r /Helvetica findfont 40.9916 sf 0 0 m (4) show NC gr  227 126 m 1012 Y s 281 126 m -54 X s 254 157 m -27 X s 254 187 m -27 X s 254 218 m -27 X s 254 248 m -27 X s 281 279 m -54 X s 254 309 m -27 X s 254
 340 m -27 X s 254 370 m -27 X s 254 401 m -27 X s 281 431 m -54 X s 254 462 m -27 X s 254 492 m -27 X s 254 523 m -27 X s 254 553 m -27 X s 281 583 m -54 X s 254 614 m -27 X s 254 644 m -27 X s 254 675 m -27 X s 254 705 m -27 X s 281 736 m -54 X s
 254 766 m -27 X s 254 797 m -27 X s 254 827 m -27 X s 254 858 m -27 X s 281 888 m -54 X s 254 919 m -27 X s 254 949 m -27 X s 254 979 m -27 X s 254 1010 m -27 X s 281 1040 m -54 X s 281 1040 m -54 X s 254 1071 m -27 X s 254 1101 m -27 X s 254 1132 m
 -27 X s
 gsave  2268 1265 0 0 C 193.246 112.727 t 0 r /Helvetica findfont 40.9916 sf 0 0 m (0) show NC gr 
 gsave  2268 1265 0 0 C 144.935 264.982 t 0 r /Helvetica findfont 40.9916 sf 0 0 m (0.01) show NC gr 
 gsave  2268 1265 0 0 C 137.615 417.236 t 0 r /Helvetica findfont 40.9916 sf 0 0 m (0.02) show NC gr 
 gsave  2268 1265 0 0 C 137.615 569.491 t 0 r /Helvetica findfont 40.9916 sf 0 0 m (0.03) show NC gr 
 gsave  2268 1265 0 0 C 137.615 721.746 t 0 r /Helvetica findfont 40.9916 sf 0 0 m (0.04) show NC gr 
 gsave  2268 1265 0 0 C 137.615 874 t 0 r /Helvetica findfont 40.9916 sf 0 0 m (0.05) show NC gr 
 gsave  2268 1265 0 0 C 137.615 1026.26 t 0 r /Helvetica findfont 40.9916 sf 0 0 m (0.06) show NC gr  1 1 1 c black
 gsave  2268 1265 0 0 C 862.289 1204.86 t 0 r /Helvetica findfont 60.0235 sf 0 0 m (All Values projection ) show NC gr 
 gr  gr showpage
end
%%EOF
