{
    "data": {
        "name": "LHC17pq",
        "file": "root://eos-hlit.jinr.ru//eos/hybrilit.jinr.ru/projects/cern/alice/rsn/alice/cern.ch/user/a/alitrain/PWGLF/LF_pp/1906/phi_leading_3s_INT7/AnalysisResults.root",
        "sigbg": "Unlike",
        "bg": "Mixing"
    },
    "mc": {
        "name": "LHC16k5_ab",
        "file": "root://eos-hlit.jinr.ru//eos/hybrilit.jinr.ru/projects/cern/alice/rsn/alice/cern.ch/user/a/alitrain/PWGLF/LF_pp_MC/1464_20200701-1604_child_1/phi_leading_3s_MB/AnalysisResults.root",
        "sigbg": "Unlike",
        "bg": "Mixing",
        "rec": "True",
        "gen": "Mother",
        "effonly": false
    },
    "bin": [
        {
            "active": true,
            "id": 1,
            "name": "pt",
            "cutRange": "5,41"
        },
        {
            "active": true,
            "id": 3,
            "name": "dphi",
            "varbins": "1,3,5,7,9,11,13,15,17,19,21,23,25,27,29,31,33,35,37" //18 parts - 20 degrees
            
        },
        {
            "active": true,
            "id": 4,
            "name": "ptl",
            "cutRange": "5,41",
            //"varbins": "4,41"
        }
    ],
    "norm": [
        {
            "id": 0,
            "min": 0.995,
            "max": 1.005
        },
        {
            "id": 1,
            "min": 1.007,
            "max": 1.01
        },
        {
            "id": 1,
            "min": 1.04,
            "max": 1.06
        },
        {
            "id": 1,
            "min": 1.05,
            "max": 1.08
        }
    ],
    "fit": [
        {
            "id": 0,
            "min": 1.01,
            "max": 1.035
        },
        {
            "id": 1,
            "min": 1.01,
            "max": 1.035
        },
     /*   {
            "id": 0,
            "min": 0.99,
            "max": 1.06
        },
        {
            "id": 1,
            "min": 0.99,
            "max": 1.06
        },*/
        {
            "id": 0,
            "min": 1.0,
            "max": 1.04
        },
        {
            "id": 1,
            "min": 1.0,
            "max": 1.04
        }
    ],
    "fitParameters": {
        "mass": 1.01946,
        "width": 0.00425,
        "sigma": 0.0025
      }
}
