{
    "data": {
        "name": "LHC15f_pass2",
        "file": "root://eos-hlit.jinr.ru//eos/hybrilit.jinr.ru/projects/cern/alice/rsn/alice/cern.ch/user/a/alitrain/PWGLF/LF_pp/1430_20190805-1710/k_leading_3s_MB/AnalysisResults.root",
        "sigbg": "UnlikePM",
        "bg": "MixingPM"
    },
    "mc": {
        "name": "LHC15g3a3",
        "file": "root://eos-hlit.jinr.ru//eos/hybrilit.jinr.ru/projects/cern/alice/rsn/alice/cern.ch/user/a/alitrain/PWGLF/LF_pp_MC/1251_20190805-1726/k_leading_3s_MB/AnalysisResults.root",
        "sigbg": "UnlikePM",
        "bg": "MixingPM",
        "rec": "True",
        "gen": "Mother",
        "effonly": false
    },
    "bin": [
        {
            "active": true,
            "id": 1,
            "name": "pt",
            "varbins": "1,3,5,7,9,11,13,15,17,19,21,41"
        },
        {
            "active": false,
            "id": 4,
            "name": "ptl",
            "cutRange": "5,41",
            "varbins": "5,41"
        }
    ],
    "norm": [
        {
            "id": 0,
            "min": 1.10,
            "max": 1.15
         },
         {
            "id": 1,
            "min": 0.75,
            "max": 0.80
         },
         {
             "id": 2,
              "min": 1.01,
              "max": 1.08
          }
    ],
    "fit": [
        {
            "id": 0,
            "min": 0.75,
            "max": 1.05
        },
        {
            "id": 1,
            "min": 0.75,
            "max": 1.05
        },
        {
            "id": 2,
            "min": 0.75,
            "max": 1.05
        },
        {
            "id": 3,
            "min": 0.75,
            "max": 1.05
        },
        {
            "id": 4,
            "min": 0.75,
            "max": 1.05
        },
        {
            "id": 5,
            "min": 0.75,
            "max": 1.05
        }
    ],
    "fitParameters": {
        "mass": 0.89555,
        "width": 0.0473,
        "sigma": 0.001
      }
}
