{
    "data": {
        "name": "LHC18pq_pass3",
        "file": "root://eos.ndmspc.io//eos/ndmspc/scratch/alice.cern.ch/user/a/alitrain/PWGLF/LF_PbPb/1626/phi_leading_3s_INT7/AnalysisResults.root",
        "sigbg": "Unlike",
        "bg": "Mixing"
    },
    "mc": {
        "name": "LHC12f1a_woSDD",
        "file": "root://eos-hlit.jinr.ru//eos/hybrilit.jinr.ru/projects/cern/alice/rsn/alice/cern.ch/user/a/alitrain/PWGLF/LF_pp_MC/1464_20200701-1604_child_1/phi_leading_3s_MB/AnalysisResults.root",
        "sigbg": "Unlike",
        "bg": "Mixing",
        "rec": "True",
        "gen": "Mother",
        "effonly": false
    },
    "bin": [
        {
            "active": true,
            "id": 1,
            "name": "pt",
            "cutRange": "11,41"
        },
        {
            "active": false,
            "id": 2,
            "name": "mult",
            "cutRange": "2,6"
        },
        {
            "active": true,
            "id": 3,
            "name": "dphi",
            "varbins": "1,2,3,4,5,6,7,8,9,10,11,12,13,14,15,16,17,18,19" //18 parts - 20 degrees
            //"varbins": "1,37"
        },
        {
            "active": true,
            "id": 4,
            "name": "ptl",
            "cutRange": "5,41"
        }
    ],
    "norm": [
        {
            "id": 0,
            "min": 1.10,
            "max": 1.15
        },  
        {
            "id": 1,
            "min": 1.15,
            "max": 1.17
        },
        {
            "id": 2,
            "min": 1.05,
            "max": 1.07
        }
    ],
    "fit": [
        {
            "id": 0,
            "min": 0.997,
            "max": 1.050
        },
        {
            "id": 1,
            "min": 0.997,
            "max": 1.050
        }
    ],
    "fitParameters": {
    "mass": 1.01946,
    "width": 0.00425,
    "sigma": 0.00219
    }
}
